---
http_interactions:
- request:
    method: get
    uri: https://www.flickr.com/services/rest/?api_key=<FLICKR_API_KEY>&format=json&method=flickr.photos.search&tags=germany
    body:
      encoding: US-ASCII
      string: ''
    headers:
      User-Agent:
      - Faraday v2.7.11
      Accept-Encoding:
      - gzip;q=1.0,deflate;q=0.6,identity;q=0.3
      Accept:
      - "*/*"
  response:
    status:
      code: 200
      message: OK
    headers:
      Content-Type:
      - text/javascript; charset=utf-8
      Content-Length:
      - '17696'
      Connection:
      - keep-alive
      Date:
      - Mon, 13 Nov 2023 00:36:56 GMT
      Server:
      - Apache/2.4.57 (Ubuntu)
      Set-Cookie:
      - ccc=%7B%22needsConsent%22%3Atrue%2C%22managed%22%3A0%2C%22changed%22%3A0%2C%22info%22%3A%7B%22cookieBlock%22%3A%7B%22level%22%3A0%2C%22blockRan%22%3A0%7D%7D%7D;
        expires=Wed, 13-Dec-2023 00:36:56 GMT; Max-Age=2592000; path=/; domain=.flickr.com
      - ccc=%7B%22needsConsent%22%3Atrue%2C%22managed%22%3A0%2C%22changed%22%3A0%2C%22info%22%3A%7B%22cookieBlock%22%3A%7B%22level%22%3A0%2C%22blockRan%22%3A1%7D%7D%7D;
        expires=Wed, 13-Dec-2023 00:36:56 GMT; Max-Age=2592000; path=/; domain=.flickr.com
      X-Content-Type-Options:
      - nosniff
      Vary:
      - Accept-Encoding
      X-Frame-Options:
      - SAMEORIGIN
      X-Cache:
      - Miss from cloudfront
      Via:
      - 1.1 fe837f35c008063fe28d7f6bd9b1c62a.cloudfront.net (CloudFront)
      X-Amz-Cf-Pop:
      - LAX3-C4
      X-Amz-Cf-Id:
      - B-j12OkVjpidmGEeCD3yZx2fgnMHDTA1pysMt4V95zYiwcmjiC7kgg==
    body:
      encoding: ASCII-8BIT
      string: 'jsonFlickrApi({"photos":{"page":1,"pages":1260,"perpage":100,"total":125978,"photo":[{"id":"53328369104","owner":"93207294@N04","secret":"11865d2b72","server":"65535","farm":66,"title":"BMW
        X6 M60i xDrive","ispublic":1,"isfriend":0,"isfamily":0},{"id":"53328295204","owner":"127290050@N03","secret":"bdb14b61c8","server":"65535","farm":66,"title":"Hamburg,
        2023","ispublic":1,"isfriend":0,"isfamily":0},{"id":"53328254009","owner":"199527890@N04","secret":"e23dafd772","server":"65535","farm":66,"title":"Geese","ispublic":1,"isfriend":0,"isfamily":0},{"id":"53327028997","owner":"33906922@N03","secret":"984371abf1","server":"65535","farm":66,"title":"Baumkuchen
        3-D \/ CrossView \/ Stereoscopy","ispublic":1,"isfriend":0,"isfamily":0},{"id":"53328343790","owner":"39631091@N03","secret":"c095e73e8a","server":"65535","farm":66,"title":"Hohengehren,
        Sunset Halden\u00e4cker","ispublic":1,"isfriend":0,"isfamily":0},{"id":"53326905122","owner":"168583569@N03","secret":"c898225eee","server":"65535","farm":66,"title":"2022333-DECORATION
        DE NOEL-CHRISTMAS DECORATION","ispublic":1,"isfriend":0,"isfamily":0},{"id":"53327701616","owner":"40844090@N03","secret":"90db512497","server":"65535","farm":66,"title":"Herbst","ispublic":1,"isfriend":0,"isfamily":0},{"id":"53328007464","owner":"25805910@N05","secret":"2176830b46","server":"65535","farm":66,"title":"GFXD5616","ispublic":1,"isfriend":0,"isfamily":0},{"id":"53327613456","owner":"35406904@N07","secret":"bf7d2cc126","server":"65535","farm":66,"title":"D\u00fcsseldorf
        - Kunstpalast","ispublic":1,"isfriend":0,"isfamily":0},{"id":"53327569596","owner":"35406904@N07","secret":"cd074fc7b3","server":"65535","farm":66,"title":"D\u00fcsseldorf
        - Kunstpalast","ispublic":1,"isfriend":0,"isfamily":0},{"id":"53327916334","owner":"82861233@N08","secret":"af8265103f","server":"65535","farm":66,"title":"Desire","ispublic":1,"isfriend":0,"isfamily":0},{"id":"53326596572","owner":"32322040@N06","secret":"d559682bdb","server":"65535","farm":66,"title":"Opel
        Omega","ispublic":1,"isfriend":0,"isfamily":0},{"id":"53327483901","owner":"39631091@N03","secret":"c630cf6090","server":"65535","farm":66,"title":"Hohengehren,
        Sunset Halden\u00e4cker","ispublic":1,"isfriend":0,"isfamily":0},{"id":"53327132510","owner":"145361631@N02","secret":"12a8cfdf68","server":"65535","farm":66,"title":"Ulmer
        Eisenbahnfreunde e.V.: Eilzugwagen B4ye D-UEF 55 80 2943 401-3 in Bebra","ispublic":1,"isfriend":0,"isfamily":0},{"id":"53327018914","owner":"145361631@N02","secret":"a448d72562","server":"65535","farm":66,"title":"Schnellzug-Dampflokomotive
        01 1104 in Bebra Rbf","ispublic":1,"isfriend":0,"isfamily":0},{"id":"53327576158","owner":"189110571@N08","secret":"678f8ac273","server":"65535","farm":66,"title":"Mainz
        University","ispublic":1,"isfriend":0,"isfamily":0},{"id":"53327349756","owner":"189110571@N08","secret":"a23a5cfc65","server":"65535","farm":66,"title":"Mainz
        University","ispublic":1,"isfriend":0,"isfamily":0},{"id":"53327807250","owner":"189110571@N08","secret":"53cbf1fff6","server":"65535","farm":66,"title":"Mainz
        University","ispublic":1,"isfriend":0,"isfamily":0},{"id":"53326476152","owner":"189110571@N08","secret":"1cb203e435","server":"65535","farm":66,"title":"Mainz
        University","ispublic":1,"isfriend":0,"isfamily":0},{"id":"53327308401","owner":"189110571@N08","secret":"9d36d13b0f","server":"65535","farm":66,"title":"Mainz
        University","ispublic":1,"isfriend":0,"isfamily":0},{"id":"53327655899","owner":"189110571@N08","secret":"252444ac9e","server":"65535","farm":66,"title":"Mainz
        University","ispublic":1,"isfriend":0,"isfamily":0},{"id":"53327306126","owner":"189110571@N08","secret":"48cc2a209b","server":"65535","farm":66,"title":"Mainz
        University","ispublic":1,"isfriend":0,"isfamily":0},{"id":"53327530808","owner":"189110571@N08","secret":"5254d9519f","server":"65535","farm":66,"title":"Mainz
        University","ispublic":1,"isfriend":0,"isfamily":0},{"id":"53327652254","owner":"189110571@N08","secret":"6271a25124","server":"65535","farm":66,"title":"Mainz
        University","ispublic":1,"isfriend":0,"isfamily":0},{"id":"53327528658","owner":"189110571@N08","secret":"13377480e6","server":"65535","farm":66,"title":"Mainz
        University","ispublic":1,"isfriend":0,"isfamily":0},{"id":"53326428482","owner":"189110571@N08","secret":"bbab6dd3e7","server":"65535","farm":66,"title":"Mainz
        University","ispublic":1,"isfriend":0,"isfamily":0},{"id":"53327645664","owner":"189110571@N08","secret":"b772acece4","server":"65535","farm":66,"title":"Mainz
        University","ispublic":1,"isfriend":0,"isfamily":0},{"id":"53327295701","owner":"189110571@N08","secret":"9672b1c64c","server":"65535","farm":66,"title":"Mainz
        University","ispublic":1,"isfriend":0,"isfamily":0},{"id":"53327293986","owner":"189110571@N08","secret":"0a0029c3b0","server":"65535","farm":66,"title":"Mainz
        University","ispublic":1,"isfriend":0,"isfamily":0},{"id":"53326422877","owner":"189110571@N08","secret":"62108ae60c","server":"65535","farm":66,"title":"Mainz
        University","ispublic":1,"isfriend":0,"isfamily":0},{"id":"53327640339","owner":"189110571@N08","secret":"9c0e0170d6","server":"65535","farm":66,"title":"Mainz
        University","ispublic":1,"isfriend":0,"isfamily":0},{"id":"53327751070","owner":"189110571@N08","secret":"128ff056eb","server":"65535","farm":66,"title":"Mainz
        University","ispublic":1,"isfriend":0,"isfamily":0},{"id":"53327638664","owner":"189110571@N08","secret":"fb56891f66","server":"65535","farm":66,"title":"Mainz
        University","ispublic":1,"isfriend":0,"isfamily":0},{"id":"53327516183","owner":"189110571@N08","secret":"33beae651c","server":"65535","farm":66,"title":"Mainz
        University","ispublic":1,"isfriend":0,"isfamily":0},{"id":"53327289446","owner":"189110571@N08","secret":"94de4dce0e","server":"65535","farm":66,"title":"Mainz
        University","ispublic":1,"isfriend":0,"isfamily":0},{"id":"53326417802","owner":"189110571@N08","secret":"10fe3b4b8e","server":"65535","farm":66,"title":"Mainz
        University","ispublic":1,"isfriend":0,"isfamily":0},{"id":"53327513983","owner":"189110571@N08","secret":"c267dc1f95","server":"65535","farm":66,"title":"Mainz
        University","ispublic":1,"isfriend":0,"isfamily":0},{"id":"53327747280","owner":"189110571@N08","secret":"fa65e6b947","server":"65535","farm":66,"title":"Mainz
        University","ispublic":1,"isfriend":0,"isfamily":0},{"id":"53327635184","owner":"189110571@N08","secret":"73676af34d","server":"65535","farm":66,"title":"Mainz
        University","ispublic":1,"isfriend":0,"isfamily":0},{"id":"53327635019","owner":"189110571@N08","secret":"2e46c8406e","server":"65535","farm":66,"title":"Mainz
        University","ispublic":1,"isfriend":0,"isfamily":0},{"id":"53327285541","owner":"189110571@N08","secret":"ee091af923","server":"65535","farm":66,"title":"Mainz
        University","ispublic":1,"isfriend":0,"isfamily":0},{"id":"53327511593","owner":"189110571@N08","secret":"ea4cd26b54","server":"65535","farm":66,"title":"Mainz
        University","ispublic":1,"isfriend":0,"isfamily":0},{"id":"53327744270","owner":"189110571@N08","secret":"e8185e3727","server":"65535","farm":66,"title":"Mainz
        University","ispublic":1,"isfriend":0,"isfamily":0},{"id":"53326415487","owner":"158350095@N03","secret":"b29403188e","server":"65535","farm":66,"title":"Fall","ispublic":1,"isfriend":0,"isfamily":0},{"id":"53327745905","owner":"158350095@N03","secret":"078e567161","server":"65535","farm":66,"title":"Fall","ispublic":1,"isfriend":0,"isfamily":0},{"id":"53326373122","owner":"93207294@N04","secret":"05df6fdcbc","server":"65535","farm":66,"title":"Porsche
        911 Carrera 4S Coup\u00e9 - 1995","ispublic":1,"isfriend":0,"isfamily":0},{"id":"53327470178","owner":"93207294@N04","secret":"e81fb8910e","server":"65535","farm":66,"title":"Porsche
        911 Carrera 4S Coup\u00e9 - 1995","ispublic":1,"isfriend":0,"isfamily":0},{"id":"53327232626","owner":"147871085@N03","secret":"ef070debac","server":"65535","farm":66,"title":"2.
        Fu\u00dfball Bundesliga, 13. Spieltag, SV Wehen Wiesbaden - 1- FC Kaiserslautern,
        2:1","ispublic":1,"isfriend":0,"isfamily":0},{"id":"53327578774","owner":"147871085@N03","secret":"fdd260d4ca","server":"65535","farm":66,"title":"2.
        Fu\u00dfball Bundesliga, 13. Spieltag, SV Wehen Wiesbaden - 1- FC Kaiserslautern,
        2:1","ispublic":1,"isfriend":0,"isfamily":0},{"id":"53326361847","owner":"147871085@N03","secret":"8a06df6a2f","server":"65535","farm":66,"title":"2.
        Fu\u00dfball Bundesliga, 13. Spieltag, SV Wehen Wiesbaden - 1- FC Kaiserslautern,
        2:1","ispublic":1,"isfriend":0,"isfamily":0},{"id":"53327458898","owner":"147871085@N03","secret":"5a55b99606","server":"65535","farm":66,"title":"2.
        Fu\u00dfball Bundesliga, 13. Spieltag, SV Wehen Wiesbaden - 1- FC Kaiserslautern,
        2:1","ispublic":1,"isfriend":0,"isfamily":0},{"id":"53327232511","owner":"147871085@N03","secret":"8f2337f466","server":"65535","farm":66,"title":"2.
        Fu\u00dfball Bundesliga, 13. Spieltag, SV Wehen Wiesbaden - 1- FC Kaiserslautern,
        2:1","ispublic":1,"isfriend":0,"isfamily":0},{"id":"53327232501","owner":"147871085@N03","secret":"a9c61ae71a","server":"65535","farm":66,"title":"2.
        Fu\u00dfball Bundesliga, 13. Spieltag, SV Wehen Wiesbaden - 1- FC Kaiserslautern,
        2:1","ispublic":1,"isfriend":0,"isfamily":0},{"id":"53327578544","owner":"147871085@N03","secret":"a0a847530b","server":"65535","farm":66,"title":"2.
        Fu\u00dfball Bundesliga, 13. Spieltag, SV Wehen Wiesbaden - 1- FC Kaiserslautern,
        2:1","ispublic":1,"isfriend":0,"isfamily":0},{"id":"53327691420","owner":"147871085@N03","secret":"5b50f6de7c","server":"65535","farm":66,"title":"2.
        Fu\u00dfball Bundesliga, 13. Spieltag, SV Wehen Wiesbaden - 1- FC Kaiserslautern,
        2:1","ispublic":1,"isfriend":0,"isfamily":0},{"id":"53327578504","owner":"147871085@N03","secret":"02e7fb9a4e","server":"65535","farm":66,"title":"2.
        Fu\u00dfball Bundesliga, 13. Spieltag, SV Wehen Wiesbaden - 1- FC Kaiserslautern,
        2:1","ispublic":1,"isfriend":0,"isfamily":0},{"id":"53327232336","owner":"147871085@N03","secret":"4c0fbfb771","server":"65535","farm":66,"title":"2.
        Fu\u00dfball Bundesliga, 13. Spieltag, SV Wehen Wiesbaden - 1- FC Kaiserslautern,
        2:1","ispublic":1,"isfriend":0,"isfamily":0},{"id":"53326321412","owner":"43405950@N07","secret":"96b695bd4b","server":"65535","farm":66,"title":"smashed","ispublic":1,"isfriend":0,"isfamily":0},{"id":"53327193636","owner":"43405950@N07","secret":"9d83abb909","server":"65535","farm":66,"title":"beam","ispublic":1,"isfriend":0,"isfamily":0},{"id":"53326317902","owner":"10462056@N06","secret":"fff14c2b37","server":"65535","farm":66,"title":"Autumn
        Kaiserstuhl evening...","ispublic":1,"isfriend":0,"isfamily":0},{"id":"53326309327","owner":"40182922@N05","secret":"a720f1683e","server":"65535","farm":66,"title":"summer
        moods","ispublic":1,"isfriend":0,"isfamily":0},{"id":"53327405678","owner":"187741730@N03","secret":"db85f3456c","server":"65535","farm":66,"title":"Change
        ... \u2764\ufe0f","ispublic":1,"isfriend":0,"isfamily":0},{"id":"53327115091","owner":"93207294@N04","secret":"8890f0e799","server":"65535","farm":66,"title":"Ariel
        Atom","ispublic":1,"isfriend":0,"isfamily":0},{"id":"53327416214","owner":"17853727@N00","secret":"e0804c2364","server":"65535","farm":66,"title":"Graffiti  2023
        - Landau\/Pfalz","ispublic":1,"isfriend":0,"isfamily":0},{"id":"53327052526","owner":"94059613@N00","secret":"3fc01f10f6","server":"65535","farm":66,"title":"There
        is hope","ispublic":1,"isfriend":0,"isfamily":0},{"id":"53327398074","owner":"94059613@N00","secret":"700dc9ce38","server":"65535","farm":66,"title":"Welcome","ispublic":1,"isfriend":0,"isfamily":0},{"id":"53326133692","owner":"95132112@N08","secret":"2bb7603124","server":"65535","farm":66,"title":"DSC_0043
        early afternoon","ispublic":1,"isfriend":0,"isfamily":0},{"id":"53327146688","owner":"157707751@N02","secret":"60114cbac2","server":"65535","farm":66,"title":"Kingfisher","ispublic":1,"isfriend":0,"isfamily":0},{"id":"53326910906","owner":"24773750@N08","secret":"eb66b9fbcd","server":"65535","farm":66,"title":"Gaia
        Zoo am 12.11.2023","ispublic":1,"isfriend":0,"isfamily":0},{"id":"53327134073","owner":"24773750@N08","secret":"43ea8434d1","server":"65535","farm":66,"title":"Gaia
        Zoo am 12.11.2023","ispublic":1,"isfriend":0,"isfamily":0},{"id":"53326905236","owner":"13770194@N03","secret":"306dc7ef7e","server":"65535","farm":66,"title":"November
        Tree 2023 II","ispublic":1,"isfriend":0,"isfamily":0},{"id":"53327249144","owner":"13770194@N03","secret":"6d4cb01a72","server":"65535","farm":66,"title":"Colourful
        Path - November 2023 VII","ispublic":1,"isfriend":0,"isfamily":0},{"id":"53327324145","owner":"50879678@N03","secret":"92a2a856db","server":"65535","farm":66,"title":"Complexit\u00e9
        d''un d\u00e9cor de briques, B\u00f6ttscherstra\u00dfe (1922-1931), Br\u00eame,
        Allemagne.","ispublic":1,"isfriend":0,"isfamily":0},{"id":"53327109018","owner":"121141396@N06","secret":"fa9380b72c","server":"65535","farm":66,"title":"Zwischenahner
        Meer","ispublic":1,"isfriend":0,"isfamily":0},{"id":"53327101143","owner":"187113622@N05","secret":"f586986a8b","server":"65535","farm":66,"title":"RR
        Media  E: rrphotomedia@gmail.com  W: https:\/\/www.wsimages.com","ispublic":1,"isfriend":0,"isfamily":0},{"id":"53326867683","owner":"41430236@N08","secret":"7ec5c7a50f","server":"65535","farm":66,"title":"Berlin,
        2023","ispublic":1,"isfriend":0,"isfamily":0},{"id":"53325876237","owner":"187113622@N05","secret":"cb13f82d14","server":"65535","farm":66,"title":"RR
        Media  E: rrphotomedia@gmail.com  W: https:\/\/www.wsimages.com","ispublic":1,"isfriend":0,"isfamily":0},{"id":"53326948378","owner":"91908502@N03","secret":"58d6b73f6d","server":"65535","farm":66,"title":"Astrantia
        major L. Gro\u00dfe Sterndolde Great Masterwort","ispublic":1,"isfriend":0,"isfamily":0},{"id":"53326947943","owner":"91908502@N03","secret":"da13be5f4f","server":"65535","farm":66,"title":"Astrantia
        major L. Gro\u00dfe Sterndolde Great Masterwort","ispublic":1,"isfriend":0,"isfamily":0},{"id":"53326946863","owner":"91908502@N03","secret":"19df5d44ec","server":"65535","farm":66,"title":"Astrantia
        major L. Gro\u00dfe Sterndolde Great Masterwort","ispublic":1,"isfriend":0,"isfamily":0},{"id":"53327177270","owner":"91908502@N03","secret":"1c3352e3a6","server":"65535","farm":66,"title":"Astrantia
        major L. Gro\u00dfe Sterndolde Great Masterwort","ispublic":1,"isfriend":0,"isfamily":0},{"id":"53327020494","owner":"90555815@N06","secret":"5620f418ac","server":"65535","farm":66,"title":"The
        cruise ship Berlin at port in Mariehamn, \u00c5land","ispublic":1,"isfriend":0,"isfamily":0},{"id":"53326977424","owner":"145451252@N03","secret":"43586a1861","server":"65535","farm":66,"title":"Pia
        happy 1, Frankfurt city forest","ispublic":1,"isfriend":0,"isfamily":0},{"id":"53326824998","owner":"108177986@N05","secret":"69d3d90172","server":"65535","farm":66,"title":"ST
        WT 5173 DAF 28-08-2023 (Germany)","ispublic":1,"isfriend":0,"isfamily":0},{"id":"53326793773","owner":"56133444@N06","secret":"d6d666de0b","server":"65535","farm":66,"title":"Reflecting
        Autumn","ispublic":1,"isfriend":0,"isfamily":0},{"id":"53325690047","owner":"70008341@N00","secret":"5d52ae5b1d","server":"65535","farm":66,"title":"Segelflugmuseum
        Wasserkuppe am 28.10.2023","ispublic":1,"isfriend":0,"isfamily":0},{"id":"53326907804","owner":"70008341@N00","secret":"f409f8713c","server":"65535","farm":66,"title":"Modellflugzeug
        mit Kamera","ispublic":1,"isfriend":0,"isfamily":0},{"id":"53326907609","owner":"70008341@N00","secret":"9abaa1f73f","server":"65535","farm":66,"title":"Segelflugmuseum
        Wasserkuppe am 28.10.2023","ispublic":1,"isfriend":0,"isfamily":0},{"id":"53325686702","owner":"70008341@N00","secret":"30522a29e0","server":"65535","farm":66,"title":"Scheibe
        L-Spatz 55","ispublic":1,"isfriend":0,"isfamily":0},{"id":"53327018030","owner":"70008341@N00","secret":"9096dc3ec7","server":"65535","farm":66,"title":"Scheibe
        L-Spatz 55","ispublic":1,"isfriend":0,"isfamily":0},{"id":"53326557906","owner":"70008341@N00","secret":"85c2d89807","server":"65535","farm":66,"title":"Schaurumpf
        Segelflugzeug Lo 100","ispublic":1,"isfriend":0,"isfamily":0},{"id":"53325684872","owner":"70008341@N00","secret":"cd865f1a1b","server":"65535","farm":66,"title":"Segelflugmuseum
        Wasserkuppe am 28.10.2023","ispublic":1,"isfriend":0,"isfamily":0},{"id":"53326902589","owner":"70008341@N00","secret":"71e8caf78a","server":"65535","farm":66,"title":"Scheibe
        Zugvogel III","ispublic":1,"isfriend":0,"isfamily":0},{"id":"53326785308","owner":"70008341@N00","secret":"0c2e91b3bf","server":"65535","farm":66,"title":"Segelflugmuseum
        Wasserkuppe am 28.10.2023","ispublic":1,"isfriend":0,"isfamily":0},{"id":"53327014615","owner":"70008341@N00","secret":"928a8a317b","server":"65535","farm":66,"title":"Modellsegelflugezug
        K 9","ispublic":1,"isfriend":0,"isfamily":0},{"id":"53326784018","owner":"70008341@N00","secret":"f000352195","server":"65535","farm":66,"title":"Segelflugmodell
        K6 E","ispublic":1,"isfriend":0,"isfamily":0},{"id":"53327006105","owner":"91908502@N03","secret":"c913624974","server":"65535","farm":66,"title":"Astragalus
        glycyphyllos L. B\u00e4renschote, S\u00fc\u00dfer Tragant Wild Liquorice","ispublic":1,"isfriend":0,"isfamily":0},{"id":"53325673872","owner":"91908502@N03","secret":"973e157257","server":"65535","farm":66,"title":"Astragalus
        glycyphyllos L. B\u00e4renschote, S\u00fc\u00dfer Tragant Wild Liquorice","ispublic":1,"isfriend":0,"isfamily":0},{"id":"53326892084","owner":"63670290@N03","secret":"4fe735a940","server":"65535","farm":66,"title":"Berlin,
        Germany","ispublic":1,"isfriend":0,"isfamily":0},{"id":"53327005290","owner":"63670290@N03","secret":"c7a9d4a94d","server":"65535","farm":66,"title":"Berlin,
        Germany","ispublic":1,"isfriend":0,"isfamily":0}]},"stat":"ok"})'
  recorded_at: Mon, 13 Nov 2023 00:36:56 GMT
recorded_with: VCR 6.2.0
